Accessor methods for the Consensus and Construction S4 classes — mf • construction
…
## Return the molecular formula
mf(consensus)
#> [1] "C4H6O5"

## Return the adduct formation rules
adductRules(consensus)
#> # A tibble: 58 × 12
#>    Name  Charge    xM   Add Nelec AddAt RemAt AddEx RemEx Rule  Default Isotopic
#>    <chr>  <int> <int> <dbl> <int> <chr> <chr> <chr> <chr> <chr>   <int>    <dbl>
#>  1 [M+3…      3     1 23.0     -3 NA    NA    Na3   NA    HBA2…       0        0
#>  2 [M+H…      3     1 15.7     -3 NA    NA    Na2H  NA    HBA2…       0        0
#>  3 [M+2…      3     1  8.33    -3 NA    NA    NaH2  NA    HBA2…       0        0
#>  4 [M+3…      3     1  1.01    -3 NA    NA    H3    NA    HBA2…       0        0
#>  5 [2M+…      2     2 28.0     -2 NA    NA    H8O3  NA    HBA2…       0        0
#>  6 [M+3…      2     1 62.5     -2 NA    NA    C6H1… NA    HBA2…       0        0
#>  7 [M+2…      2     1 42.0     -2 NA    NA    C4H8… NA    HBA2…       0        0
#>  8 [M+2…      2     1 23.0     -2 NA    NA    Na2   NA    HBA2…       1        0
#>  9 [M+A…      2     1 21.5     -2 NA    NA    C2H5N NA    HBA2…       0        0
#> 10 [M+H…      2     1 20.0     -2 NA    NA    KH    NA    HBA2…       1        0
#> # ℹ 48 more rows
…
## Return the % consensus threshold
threshold(consensus)
#> [1] 50

## Return the `MetaboliteDatabase` ionisation database of searched database  hits
hits(consensus)
#> 
#> MetaboliteDatabase object containing 1 entries
#> 

## Return the putative ionisation products
PIPs(consensus)
#> # A tibble: 54 × 2
#>    Adduct         ID    
#>    <chr>          <chr> 
#>  1 [M+3Na]3+      C00149
#>  2 [M+H+2Na]3+    C00149
#>  3 [M+2H+Na]3+    C00149
#>  4 [M+3H]3+       C00149
#>  5 [2M+3H2O+2H]2+ C00149
#>  6 [M+3ACN+2H]2+  C00149
#>  7 [M+2ACN+2H]2+  C00149
#>  8 [M+2Na]2+      C00149
#>  9 [M+ACN+2H]2+   C00149
#> 10 [M+H+K]2+      C00149
#> # ℹ 44 more rows

## Return the structural classifications
classifications(consensus)
#> # A tibble: 1 × 6
#>   ID     INCHIKEY                    kingdom           superclass class subclass
#>   <chr>  <chr>                       <chr>             <chr>      <chr> <chr>   
#> 1 C00149 BJEPYKJPYRNKOW-REOHCLBHSA-N Organic compounds Organic a… Hydr… Beta hy…

## Return the consensus structural classification
consensusClassifications(consensus)
#> # A tibble: 58 × 6
#>    Adduct         kingdom           superclass    class subclass `Consensus (%)`
#>    <chr>          <chr>             <chr>         <chr> <chr>              <dbl>
#>  1 M              Organic compounds Organic acid… Hydr… Beta hy…             100
#>  2 [2M+3H2O+2H]2+ Organic compounds Organic acid… Hydr… Beta hy…             100
#>  3 [2M+ACN+H]1+   Organic compounds Organic acid… Hydr… Beta hy…             100
#>  4 [2M+ACN+Na]1+  Organic compounds Organic acid… Hydr… Beta hy…             100
#>  5 [2M+FA-H]1-    Organic compounds Organic acid… Hydr… Beta hy…             100
#>  6 [2M+H]1+       Organic compounds Organic acid… Hydr… Beta hy…             100
#>  7 [2M+Hac-H]1-   Organic compounds Organic acid… Hydr… Beta hy…             100
#>  8 [2M+K41]1+     Organic compounds Organic acid… Hydr… Beta hy…             100
#>  9 [2M+K]1+       Organic compounds Organic acid… Hydr… Beta hy…             100
#> 10 [2M+NH4]1+     Organic compounds Organic acid… Hydr… Beta hy…             100
#> # ℹ 48 more rows
…
